Project 1 - US Beers Final
…
#ibu summary
beerdata1 %>% summarise(mean(ibu, na.rm = T), median(ibu, na.rm = T), sd(ibu, na.rm = T), var(ibu, na.rm = T), min(ibu, na.rm = T), max(ibu, na.rm = T), n_distinct(ibu, na.rm = T))

##   mean(ibu, na.rm = T) median(ibu, na.rm = T) sd(ibu, na.rm = T)
## 1             42.71317                     35           25.95407
##   var(ibu, na.rm = T) min(ibu, na.rm = T) max(ibu, na.rm = T)
## 1            673.6135                   4                 138
##   n_distinct(ibu, na.rm = T)
## 1                        107

#summaries after grouping by categorical variables
beerdata1 %>% group_by(state,city) %>% summarise(n_distinct(brewery), mean(abv, na.rm=T))

## # A tibble: 401 x 4
## # Groups:   state [51]
##    state city       `n_distinct(brewery)` `mean(abv, na.rm = T)`
##    <fct> <fct>                      <int>                  <dbl>
##  1 " AK" Anchorage                      4                 0.0542
##  2 " AK" Juneau                         1                 0.053 
##  3 " AK" Soldotna                       1                 0.0585
##  4 " AK" Talkeetna                      1                 0.0595
##  5 " AL" Birmingham                     1                 0.0654
##  6 " AL" Gadsden                        1                 0.06  
##  7 " AL" Huntsville                     1                 0.0577
##  8 " AR" Rogers                         1                 0.04  
##  9 " AR" Springdale                     1                 0.055 
## 10 " AZ" Chandler                       1                 0.0632
## # ... with 391 more rows

beerdata1 %>% group_by(state, style) %>% summarise(mean(abv, na.rm = T)) %>% filter(style=="American IPA" | style=="Cider")

## # A tibble: 56 x 3
## # Groups:   state [48]
##    state style        `mean(abv, na.rm = T)`
##    <fct> <fct>                         <dbl>
##  1 " AK" American IPA                 0.0624
##  2 " AL" American IPA                 0.066 
##  3 " AZ" American IPA                 0.0659
##  4 " CA" American IPA                 0.0671
##  5 " CO" American IPA                 0.0661
##  6 " CT" American IPA                 0.066 
##  7 " DC" American IPA                 0.065 
##  8 " DE" American IPA               NaN     
##  9 " FL" American IPA                 0.0685
## 10 " GA" American IPA                 0.0637
## # ... with 46 more rows
…
